<svg width="25" height="22" viewBox="0 0 25 22" fill="none" xmlns="http://www.w3.org/2000/svg">
<g clip-path="url(#clip0_496:594)">
<g opacity="0.3">
<path d="M11.0177 0.0263672C5.33865 0.0263672 0.718262 4.36648 0.718262 9.7011C0.718262 15.0357 5.3387 19.3758 11.0177 19.3758C16.6967 19.3758 21.3172 15.0357 21.3172 9.7011C21.3172 4.36648 16.6968 0.0263672 11.0177 0.0263672ZM11.0177 17.7854C6.26955 17.7854 2.4067 14.1586 2.4067 9.70106C2.4067 5.24326 6.26955 1.61669 11.0177 1.61669C15.7659 1.61669 19.6287 5.24326 19.6287 9.70106C19.6288 14.1586 15.7659 17.7854 11.0177 17.7854Z" fill="black"/>
</g>
<g opacity="0.3">
<path d="M23.8263 20.6145L18.2826 15.4193C17.952 15.1097 17.4176 15.1111 17.0886 15.4222C16.7599 15.7337 16.7613 16.237 17.0917 16.5469L22.6354 21.7421C22.8003 21.8964 23.0153 21.9735 23.2309 21.9735C23.4478 21.9735 23.6645 21.8953 23.8294 21.7392C24.1581 21.4277 24.1567 20.9244 23.8263 20.6145Z" fill="black"/>
</g>
</g>
<defs>
<clipPath id="clip0_496:594">
<rect width="23.3567" height="22" fill="white" transform="translate(0.718262)"/>
</clipPath>
</defs>
</svg>
