<svg width="33" height="34" viewBox="0 0 33 34" fill="none" xmlns="http://www.w3.org/2000/svg">
<path d="M16.5 31.1919C24.0939 31.1919 30.25 25.0358 30.25 17.4419C30.25 9.84798 24.0939 3.69189 16.5 3.69189C8.90608 3.69189 2.75 9.84798 2.75 17.4419C2.75 25.0358 8.90608 31.1919 16.5 31.1919Z" stroke="#494949" stroke-width="2" stroke-linecap="round" stroke-linejoin="round"/>
<path d="M20.625 13.3169L12.375 21.5669" stroke="#494949" stroke-width="2" stroke-linecap="round" stroke-linejoin="round"/>
<path d="M12.375 13.3169L20.625 21.5669" stroke="#494949" stroke-width="2" stroke-linecap="round" stroke-linejoin="round"/>
</svg>
